Arg12	36.54 7.15
Arg16	36.54 7.15
Arg19	36.54 7.15
Arg4	36.54 7.15
Arg5	36.54 7.15
Cat15	41.85 2.5333
Cat3	41.85 2.5333
Cat6	41.85 2.5333
Cat7	41.85 2.5333
Cat8	41.85 2.5333
Cor11	41.6167 8.9667
Cor12	41.6167 8.9667
Cor14	41.6167 8.9667
Cor17	41.6167 8.9667
Cor3	41.6167 8.9667
Cor7	41.6167 8.9667
Haz10	36.8333 -3.3
Haz16	36.8333 -3.3
Haz2	36.8333 -3.3
Haz24	36.8333 -3.3
Haz9	36.8333 -3.3
Ken11	34.0833 -6.5833
Ken6	34.0833 -6.5833
Ken9	34.0833 -6.5833
Lan10	43.75 -1.3333
Lan11	43.75 -1.3333
Lan14	43.75 -1.3333
Lan8	43.75 -1.3333
Mon11	37.3167 -8.5667
Mon12	37.3167 -8.5667
Mon13	37.3167 -8.5667
Mon26	37.3167 -8.5667
Mon9	37.3167 -8.5667
Pug10	40.5667 17.6667
Pug12	40.5667 17.6667
Pug5	40.5667 17.6667
Pug7	40.5667 17.6667
Pug8	40.5667 17.6667
Pug9	40.5667 17.6667
Sar15	39.0833 8.85
Sar16	39.0833 8.85
Sar23	39.0833 8.85
Sar4	39.0833 8.85
Sar7	39.0833 8.85
Sar9	39.0833 8.85
Sic13	37.1167 14.5
Sic4	37.1167 14.5
Sic5	37.1167 14.5
Sin21	38.75 -9.4167
Sin33	38.75 -9.4167
Sin6	38.75 -9.4167
Taz17	34.2 -4.25
Taz2	34.2 -4.25
Taz25	34.2 -4.25
Taz8	34.2 -4.25
Tol17	39.3667 -5.35
Tol27	39.3667 -5.35
Tol3	39.3667 -5.35
Tol4	39.3667 -5.35
Tol6	39.3667 -5.35
Tos12	42.4167 11.95
Tos15	42.4167 11.95
Tos22	42.4167 11.95
Tos3	42.4167 11.95
Tos7	42.4167 11.95
Tos8	42.4167 11.95
Tun1	36.95 8.85
Tun23	36.95 8.85
Tun4	36.95 8.85
Tun6	36.95 8.85
Tun7	36.95 8.85
Tun9	36.95 8.85
Var11	43.133333 6.25
Var16	43.133333 6.25
Var17	43.133333 6.25
Var19	43.133333 6.25
Var21	43.133333 6.25
Var4    43.133333 6.25
